-C
-t
-f
{Intrada/Intrada}
b
c
1    c
1 aa
1 d a
1a   e
b
1c   c
#2ca
xa
1 da
#2ac
x a
b
1cdda
1  d
1  a   a
#2acc  a
x da c
b
#2 cde c
xc
x f
x d e
#2 c c
xcd a
x cd
x df
b

b
#2 cde
x df
x cd
x ac
#2 ce  c
x  f c
xc   e
x  e
b
#2 df c
x df
xacd
x ac
#2\2c \3d\4e
x a\1c
x cde
x  cc
b
1 daa
1cd
1a cc
1 df
b
1 cde
1cc
1 aab
1ca
b
1a cc
#2a  c
x  a
#2  cce
x   c
x  d
x  c
b

b
1  aa
1cd
#2    c
xac
1 da
b
1 ccce
1c de
1  c   /a
1b
b
0.cce  c
#2 cda
x a
b
#2ac ca
x d  c
xac  e
x c ca
#2 da c
x c
x cd a
xaa   e
b
#2ccd  c
x a   e
x c  a
x  d ec
#2 df  d
x c
x dd  c
x  bc a
b

b
#2 da   a
x  c  a
x cd  c
x da   a
#2 acc a
x  d
xaa
x  ca
b
1c e ec
1  f c
1 c  e
1  ee
b
1 aabc
1      //a
0 aabc
.
b
b
.
1c da
1ea  c
1ff  e
1 ea c
1a   e
1caab
b
1aacc
1 cd
1 dfa
1 ccce
1  aa
1 acc
b
0 cee
1 da c
0aacc
1acd a
b

b
1cdda
1ac  a
1 da c
1 c ca
#2 cee c
xc
#2 df  d
x  f
b
0 cee c
1 efec
0aac  a
1 cdca
b
#2 dda  a
x  c
1  a
1a cc
1.c da  a
2   c
1 dfe
b
1.ac ca
2 d  c
1a d e
1cdda
#2  de
xa   e
#2 df c
x  d
b
1.a cc
2  de
1aac  a
1. cee c
2 df
1 f   c
b
Y. efec //a
.
b
b

e
