-C
-t
-f
{50. Tantz 6/50. Tantz 6}
b
c
0caa c
1cce  c
1caa c
b
0ha g a
0caa c
b
#2ha g a
xf
xh
xk
1ha g a
1fcd a
b
1.ea c a
2c
0acd a
b
#2fc e c
xe
xf
xh
1fc e c
1ecc e
b
0cce  c
0cce  c
.
b
b
.
#2cce  c
x f
xc
xe
1cce  c
1ecc e
b
0fc e c
0caa c
b

b
#2aa c a
x d
xa
xc
1aa c a
1caa c
b
1da c
1     a
0acd a
b
0 ddef
1 ddef
1acd a
b
#2cdda
xa
xc
xd
1cdda
1acd a
b
1 daac
1aab  a
1     c
1cce
b
0 aabc
1 aab
1    c
.
b
b

{50. Tantz 6/50. Tantz 6}
b
1caa c
1cce  c
1caa c
b
0ha g a
1caa c
b
1ha g a
1ha g
1fcd a
b
1.ea c a
2c
1acd a
b
1fc e c
#2e
xf
1ecc e
b
0cce  c
1cce  c
.
b
b
.
1cce  c
1cce
1ecc e
b
0fc e c
1caa c
b
1aa c a
1aa c
1caa c
b

b
1da c
1     a
1acd a
b
1 ddef
1 dde
1acd a
b
1cdda
#2a
xc
1acd a
b
1 daac
1aab  a
1cce  c
b
1. aabc
2 aab
Y    c
.
b
b

e
