-C
-t
-h
{25. Ricercar 8/25. Ricercar 8}
b
c
0  2 00
10
1     2
b
1  2 03
1     2
1     0
1    3
b
1 0
1    10
1    0
1   3
b
00  1 0
1  2
1   0
b
10  1 0
1   3
1    0
1    2
b
1 2 04
1     0
0    02
b
1 2
1     0
1    3
1    2
b
13   0
1    2
1    3
1     0
b
12
1     2
1     3
1     2
b

b
00 2  3
0   1 0
b
0   3 2
0   5 3
b
0   6 5
0 0
b
0  5  7
00
b
0  5  7
1     5
1     3
b
1  0  2
1     0
1    3
1    2
b
0   10
0     0
b
1   0
1     0
1    4
1    2
b
1   04
1    0
1    2
1    4
b
1  2  0
1    3
1     0
1     2
b
1  2  3
1   0
1   1
1   3
b

b
0   53
0  5
b
0  03
1     2
1     0
b
1  03 2
1    3
1     0
1     2
b
03  103
0     7
b
0    0
1     5
1     3
b
1  0  2
1     0
1    3
1    2
b
0   10
13
1 0
b
1 2
1 3
1  0
1  2
b
0 2 04
0  21 0
b
0 2 0 0
1    4
1    2
b
0 2 04
0     5
b

b
00 2  3
0   1
b
10
1   3
1    0
1    2
b
0 2 03
0    1
b
1  0
1    0
1   3
1   1
b
0 0 0
03  1
b
0 0  1
0   0
b
03  10
1   0
1  2
b
0  0
0   1
b
13
1   0
1  2
1  0
b
1 02 2
1  0
1  2
1  4
b
0  2
0   3
b

b
1 0
1   1
1   0
1  2
b
1 20 3
1  2
1   0
1   1
b
0   0
0    0
b
1 2
1   3
1   1
1   0
b
1 32  0
1   0
1   1
1   3
b
0 2 2
0 0 3
b
0 2  3
0   2
b
1 0 31
1 2
1 3
1  0
b
1  2
1  4
1   2
1   3
b
0  220
1     8
1     7
b

b
1     5
1     3
1     2
1     0
b
0  1  2
0  2  0
b
0     2
0  1
b
1  2  3
1   0
1   1
1   3
b
1    0
1   3
1    0
1    2
b
0  0 32
1    1
1    0
b
0  03 2
0  21 3
b
0  03
1     3
1     2
b
13    3
12
13
1 0
b
1 2
1 0
1 2
1 3
b
1  0
1   0
1 3 1
1 2
b

b
0 0 0
03  1
b
1 0
1   0
1   1
1   0
b
13  1
1   3
1    0
1    2
b
1    3
1     0
1     2
1     3
b
1  00 5
1     3
1     2
1     0
b
1     2
1     0
1    3
1    2
b
0  210
0     0
b
0 2 0 0
1    4
1    2
b
0 2 04
0     0
b
00 2  0
1    3
1    2
b

b
1    0
1   3
1   2
1   0
b
1   2
1   3
00  20
b
0 0 31
1    0
1   3
b
Y0  200
b
b

e
