-C
-t
-f
{/Philip Rosseter}
b
1 abc
1  d
0aa c
0 efec
b
0da c
1 ab
1d
0f de
b
1da c
1 c
1cd a
1 c
1aa c
1     a
b
w efec
0
b
0 dff d
0ddff
0cd a
b
0.aa c
1     a
1 abc
1 bd
b
1 dfa
1 a
1   cd
#2  d
x  b
0  d
b
w aa c
0
b

b
.
0 dff d
1 df  d
1a
1.cdda
2 b
b
1.ddf  d
2    a
1    c
1    e
1cd a
1  d
b
0 df c
1a d d
1  b
1 dba
1  a
b
w aba d
0
b
0 aa c
1 cd a
1     d
1  d  c
1 e
b
1.aa   a
2c
1da c
1  b
1ca b
1  a
b
1aabc
1  d
0aaa c
1 e
1  d
b
waac  a
0
.
b
b

e
