-C
-t
-f
{I prithee send me back my heart/Henry Lawes}
b
2.fb  a
x
x
3 a
#3fb  a
x d
2ai   a
#2 a
xff  d
b
x
2bf a
#3 d
x b
#2dd  c
x
xad  d
#3 b
x a
2bb  a
b

b
x
2. d  c
3 b
#2aa   e
x
xab  a
x
1 dda b
b
x
1.aaccca
x
2 dff
x
#2 dff
x
xdb c
b
x
2.f gd
3d
#2bd a
x
xba a
x
#2c db
xc
b

b
x
#2 abc
xa
x
#2 df c
x
x a  d
#3  d
x  b
xa d a
xc
b
A1
#3d
xc
2.aacc
3 d
x
1. bdca
.
b
b
A2
x
#3d d
xc
2.aacc
3 d
1.ffghhf
b
b

e
