-C
-t
-f
{La non vol perche non me ama/La non vol perche non me ama}
b
c
0
0   c
b
1 ab
1 a    i
0 d a
b
0  dd
1 a c
1 a c
b
0  d a
0  d a
b
.
1 b  a
#2    a
x d
1a   d
1 b d
b
1 d a
#2   a
x b
0 a   d
b
w  d a
.
b
b
0   ca
0   df
b
1  b d
1  bc
1  da
1   d
b
1.  b  d
2   d
0   ca
b

b
0  da
1  d
1  d
b
0  d
0  b
b
1   d
1   d
1   ca
1   c
b
1    a
1   c
1    a
1   c
b
0 a   d
1  b
1 a
b
1   c
1 a
0 ab
b
1   d
0  d
#2  b
x   d
b
1  bc
0  d
1  c
b
0  d a
0 b
b
w a c a
b
b

e
